A header row that should be ignored
Row number,Account,Currency,Booking date,Transaction date,Currency date,Reference,Description,Amount,Net
1,"My account",SEK,2024-01-01,2024-01-02,2024-01-03,"REF A","Tickets",-500.00,1000.00
2,"My account",SEK,2024-01-04,2024-01-05,2024-03-06,"REF B","Dinner",-750.00,250.00